Create xlsx labeling file — create_labelingFile • managecrownsdata
…
create_labelingFile(
crownsFile = crownsFile,
site = site,
dates = dates,
save_xlsx = FALSE
)
#> # A tibble: 41 × 14
#>    site       id species   genus family     n obs   update `20220427` `20220511`
#>    <chr>   <dbl> <chr>     <chr> <chr>  <int> <lgl> <lgl>  <lgl>      <lgl>     
#>  1 Bouamir   665 Desborde… Desb… Irvin…    19 NA    NA     NA         NA        
#>  2 Bouamir   666 Desborde… Desb… Irvin…    19 NA    NA     NA         NA        
#>  3 Bouamir   668 Desborde… Desb… Irvin…    19 NA    NA     NA         NA        
#>  4 Bouamir   669 Desborde… Desb… Irvin…    19 NA    NA     NA         NA        
#>  5 Bouamir   670 Desborde… Desb… Irvin…    19 NA    NA     NA         NA        
#>  6 Bouamir   671 Desborde… Desb… Irvin…    19 NA    NA     NA         NA        
#>  7 Bouamir   673 Desborde… Desb… Irvin…    19 NA    NA     NA         NA        
#>  8 Bouamir   674 Desborde… Desb… Irvin…    19 NA    NA     NA         NA        
#>  9 Bouamir   676 Desborde… Desb… Irvin…    19 NA    NA     NA         NA        
#> 10 Bouamir   678 Desborde… Desb… Irvin…    19 NA    NA     NA         NA        
#> # ℹ 31 more rows
#> # ℹ 4 more variables: `20220525` <lgl>, `20220610` <lgl>, `20220624` <lgl>,
#> #   Comm <lgl>
…
