Merge labels and rgb values — merge_values • managecrownsdata
…
raw_labels <- read_excel(
file.path(
system.file(package="managecrownsdata"),
'xlsx/labeling_file_Bouamir.xlsx')
)
longLabels <- pivot_Labels(raw_labels, simplify_labels = TRUE)

merge_values(longLabels, rgbValues)
#> # A tibble: 3,690 × 17
#>    site       id date       family   genus species phenophase type  metric band 
#>    <fct>   <int> <date>     <fct>    <fct> <fct>   <chr>      <fct> <fct>  <fct>
#>  1 Bouamir   366 2022-04-27 Combret… Ptel… Pteleo… D          RGB   mean   red  
#>  2 Bouamir   427 2022-04-27 Combret… Ptel… Pteleo… L          RGB   mean   red  
#>  3 Bouamir   428 2022-04-27 Bursera… Cana… Canari… L          RGB   mean   red  
#>  4 Bouamir   429 2022-04-27 Sapotac… Bail… Baillo… F          RGB   mean   red  
#>  5 Bouamir   433 2022-04-27 Moraceae Mili… Milici… L          RGB   mean   red  
#>  6 Bouamir   436 2022-04-27 Annonac… Xylo… Xylopi… L;fl?      RGB   mean   red  
#>  7 Bouamir   665 2022-04-27 Irvingi… Desb… Desbor… L          RGB   mean   red  
#>  8 Bouamir   666 2022-04-27 Irvingi… Desb… Desbor… L          RGB   mean   red  
#>  9 Bouamir   667 2022-04-27 Malvace… Erib… Eribro… L          RGB   mean   red  
#> 10 Bouamir   668 2022-04-27 Irvingi… Desb… Desbor… L          RGB   mean   red  
#> # ℹ 3,680 more rows
#> # ℹ 7 more variables: value <dbl>, plot_name <fct>, code_sp <dbl>, obs <chr>,
#> #   Comm <chr>, update <chr>, Usable_crown <lgl>
…
